Get area citations from Open Baltimore — get_area_citations • mapbaltimore
…
# Get bulk trash citations for Council District 5
get_area_citations(
   area_type = "council district",
   area_name = "5",
   description = "BULK TRASH")
#> ── Downloading "ECB" from <https://opendata.baltimorecity.gov/egis/rest/services
#> Layer type: "Table"
#> 
#> Simple feature collection with 984 features and 30 fields
#> Geometry type: POINT
#> Dimension:     XY
#> Bounding box:  xmin: 424889.3 ymin: 184841.3 xmax: 430399.3 ymax: 189322.6
#> Projected CRS: NAD83(HARN) / Maryland
#> # A tibble: 984 × 31
#>    citation_no lien_code violation_date      due_date            agency  fine_…¹
#>  * <chr>       <chr>     <dttm>              <dttm>              <chr>     <dbl>
#>  1 04382735    L         2007-03-15 00:00:00 2007-04-14 00:00:00 DEPART…      50
#>  2 05249719    L         2010-07-15 00:00:00 2010-08-14 00:00:00 BALTIM…      60
#>  3 05335070    L         2011-08-26 00:00:00 2011-09-25 00:00:00 BALTIM…      60
#>  4 50005016    L         2007-05-29 00:00:00 2007-06-28 00:00:00 DEPART…      50
#>  5 50053941    L         2007-08-01 00:00:00 2007-08-31 00:00:00 DEPART…      50
#>  6 50116920    L         2007-10-10 00:00:00 2007-11-09 00:00:00 DEPART…      50
#>  7 50263862    L         2008-03-27 00:00:00 2008-04-26 00:00:00 DEPART…      50
#>  8 50436708    L         2008-09-17 00:00:00 2008-10-17 00:00:00 DEPART…      50
#>  9 50493634    L         2008-11-12 00:00:00 2008-12-12 00:00:00 DEPART…      50
#> 10 50520915    L         2008-12-03 00:00:00 2009-01-02 00:00:00 DEPART…     100
#> # … with 974 more rows, 25 more variables: description <chr>, balance <dbl>,
#> #   last_paid_date <dttm>, last_paid_amount <dbl>, hearing_date <dttm>,
#> #   hearing_request_received_date <dttm>, citation_status <chr>,
#> #   violation_code_article <chr>, violation_code_section <chr>,
#> #   violation_location <chr>, block <chr>, lot <chr>, officer_id <chr>,
#> #   officer_presence_requested <chr>, hearing_status <chr>, hear_time <chr>,
#> #   total_paid <dbl>, total_abated <dbl>, total_voided <dbl>, …
…
